[gd_scene load_steps=7 format=3 uid="uid://cu82br6r6hf6t"]

[ext_resource type="Shader" uid="uid://d1ing3hfmrox4" path="res://Phantom/Phantom.gdshader" id="1_5xci3"]
[ext_resource type="Script" uid="uid://s034n22uyt6w" path="res://Phantom/BodyMesh.gd" id="2_3tavl"]
[ext_resource type="Shader" uid="uid://hfntplnpfnvs" path="res://Phantom/PhantomShadow.gdshader" id="3_yqjql"]

[sub_resource type="CapsuleShape3D" id="CapsuleShape3D_0hh8i"]
radius = 0.19
height = 1.57

[sub_resource type="ShaderMaterial" id="ShaderMaterial_hh43c"]
render_priority = 0
shader = ExtResource("1_5xci3")

[sub_resource type="ShaderMaterial" id="ShaderMaterial_uutqe"]
render_priority = 0
shader = ExtResource("3_yqjql")

[node name="Body" type="CollisionShape3D"]
transform = Transform3D(1, 0, 0, 0, 1, 0, 0, 0, 1, 0, 0.985, 0)
shape = SubResource("CapsuleShape3D_0hh8i")

[node name="BodyMesh" type="MeshInstance3D" parent="."]
transform = Transform3D(1, 0, 0, 0, 1, 0, 0, 0, 1, 0, -0.985, 0)
material_override = SubResource("ShaderMaterial_hh43c")
cast_shadow = 0
skeleton = NodePath("")
script = ExtResource("2_3tavl")

[node name="ShadowCaster" type="MeshInstance3D" parent="."]
transform = Transform3D(1, 0, 0, 0, 1, 0, 0, 0, 1, 0, -0.985, 0)
material_override = SubResource("ShaderMaterial_uutqe")
cast_shadow = 3
skeleton = NodePath("")
script = ExtResource("2_3tavl")
