[gd_scene load_steps=6 format=3 uid="uid://bhmj65mdaom7l"]

[ext_resource type="Script" uid="uid://crm2u2vjxcs8i" path="res://Phantom/Phantom.gd" id="1"]
[ext_resource type="PackedScene" uid="uid://cu82br6r6hf6t" path="res://Phantom/Body.tscn" id="3_hj2yi"]

[sub_resource type="SeparationRayShape3D" id="SeparationRayShape3D_n8vpc"]
length = 0.2

[sub_resource type="StandardMaterial3D" id="StandardMaterial3D_axfi8"]
shading_mode = 0
disable_fog = true

[sub_resource type="SphereMesh" id="SphereMesh_5ek5y"]
material = SubResource("StandardMaterial3D_axfi8")
radius = 0.02
height = 0.015
radial_segments = 8
rings = 4

[node name="Phantom" type="CharacterBody3D"]
collision_layer = 5
script = ExtResource("1")

[node name="Body" parent="." instance=ExtResource("3_hj2yi")]

[node name="Feet" type="CollisionShape3D" parent="."]
transform = Transform3D(1, 0, 0, 0, -4.37114e-08, -1, 0, 1, -4.37114e-08, 0, 0.2, 0)
shape = SubResource("SeparationRayShape3D_n8vpc")

[node name="Eyes" type="Node3D" parent="."]
transform = Transform3D(1, 0, 0, 0, 1, 0, 0, 0, 1, 0, 1.64, 0)

[node name="LeftEye" type="MeshInstance3D" parent="Eyes"]
transform = Transform3D(1, 0, 0, 0, 1, 0, 0, 0, 1, -0.028, 0, -0.13)
cast_shadow = 0
mesh = SubResource("SphereMesh_5ek5y")
skeleton = NodePath("../..")

[node name="RightEye" type="MeshInstance3D" parent="Eyes"]
transform = Transform3D(1, 0, 0, 0, 1, 0, 0, 0, 1, 0.028, 0, -0.13)
cast_shadow = 0
mesh = SubResource("SphereMesh_5ek5y")
skeleton = NodePath("../..")
