[gd_scene load_steps=7 format=3 uid="uid://qr8yqkaebe4n"]

[ext_resource type="PackedScene" uid="uid://0cwc2ix4mg7n" path="res://Worlds/City/Streets/Intersection.tscn" id="1"]
[ext_resource type="Script" uid="uid://b5lkhpcp4ntq2" path="res://Worlds/City/City.gd" id="2"]
[ext_resource type="PackedScene" uid="uid://w7txeiyl6ugw" path="res://Player/Player.tscn" id="3"]

[sub_resource type="ProceduralSkyMaterial" id="ProceduralSkyMaterial_4iuo2"]
sky_top_color = Color(0.156863, 0.0784314, 0, 1)
sky_horizon_color = Color(1, 0.501961, 0, 1)
sky_curve = 0.04
sky_energy_multiplier = 0.5
ground_bottom_color = Color(0.156863, 0.0784314, 0, 1)
ground_horizon_color = Color(1, 0.501961, 0, 1)
ground_curve = 0.04
ground_energy_multiplier = 0.5
sun_angle_max = 80.0
sun_curve = 0.075

[sub_resource type="Sky" id="1"]
sky_material = SubResource("ProceduralSkyMaterial_4iuo2")

[sub_resource type="Environment" id="2"]
background_mode = 2
sky = SubResource("1")
ambient_light_energy = 0.1
fog_enabled = true
fog_mode = 1
fog_density = 1.0
fog_aerial_perspective = 1.0
fog_depth_curve = 0.5
fog_depth_begin = 0.0
fog_depth_end = 250.0
adjustment_enabled = true

[node name="City" type="Node3D"]
process_mode = 1
script = ExtResource("2")

[node name="WorldEnvironment" type="WorldEnvironment" parent="."]
environment = SubResource("2")

[node name="DirectionalLight3D" type="DirectionalLight3D" parent="."]
transform = Transform3D(-0.707107, 0.5, 0.5, 0, -0.707107, 0.707107, 0.707107, 0.5, 0.5, 0, 0, 0)
light_energy = 0.125
shadow_enabled = true

[node name="Player" parent="." instance=ExtResource("3")]

[node name="Intersection" parent="." instance=ExtResource("1")]

[node name="Phantoms" type="Node" parent="."]
