[gd_scene load_steps=3 format=3 uid="uid://c18bjhc4d5el6"]

[ext_resource type="Script" uid="uid://bvv0r37d4kaif" path="res://Props/ScotsPine/ScotsPine.gd" id="1_ek8xe"]

[sub_resource type="CapsuleShape3D" id="CapsuleShape3D_xqye7"]
resource_local_to_scene = true

[node name="ScotsPine" type="StaticBody3D"]
script = ExtResource("1_ek8xe")

[node name="CollisionShape3D" type="CollisionShape3D" parent="."]
shape = SubResource("CapsuleShape3D_xqye7")

[node name="MeshInstance3D" type="MeshInstance3D" parent="."]
